amqp==2.1.4
arrow==0.10.0
billiard==3.5.0.2
blessed==1.14.2
#celery==4.0.2
certifi==2017.4.17
chardet==3.0.4
django-embed-video==1.1.2
django-guardian==1.4.9
django-picklefield==1.0.0
django-q==0.8.0
easy-thumbnails==2.4.1
future==0.16.0
idna==2.5
kombu==4.0.2
#numpy==1.13.0
olefile==0.44
#paperclip==2.1.1
Pillow==4.2.0
python-dateutil==2.6.0
pytz==2017.2
redis==2.10.5
requests==2.18.1
six==1.10.0
urllib3==1.21.1
vine==1.1.3
wcwidth==0.1.7
amqp==2.1.4
arrow==0.10.0
billiard==3.5.0.2
blessed==1.14.2
celery==4.0.2
certifi==2017.4.17
chardet==3.0.4
Django==1.10.3
-e git+https://github.com/bartTC/django-attachments.git@e115774f69544001022cda5980a524a5198d76f4#egg=django_attachments
django-embed-video==1.1.2
django-guardian==1.4.9
django-multiupload==0.5.2
django-picklefield==1.0.0
django-q==0.8.0
easy-thumbnails==2.4.1
future==0.16.0
idna==2.5
kombu==4.0.2
numpy==1.13.0
olefile==0.44
paperclip==2.1.1
Pillow==4.2.0
python-dateutil==2.6.0
pytz==2017.2
redis==2.10.5
requests==2.18.1
six==1.10.0
urllib3==1.21.1
vine==1.1.3
wcwidth==0.1.7
